 (-4.533715626283264626e-03+0.000000000000000000e+00j)
 (-4.704586486302552231e-03+5.501155711176581795e-03j)
 (-1.144942921481434048e-02+-2.943541900294258887e-03j)
 (-1.256441566351302816e-02+-3.670141835081620202e-02j)
 (4.626482841608875463e-02+-5.532476912793520690e-02j)
 (6.250101926503875971e-02+-1.955413693229396052e-02j)
 (3.232349225805309506e-02+-1.518567797113958701e-02j)
 (2.350440998704290269e-02+-6.007082321798283553e-02j)
 (5.010813641042236033e-02+-1.217790716276736379e-01j)
 (1.150645326860414708e-01+-1.660113771263172222e-01j)
 (1.769476553141666186e-01+-1.610914358398872481e-01j)
 (2.288772966653253860e-01+-1.156935265037355720e-01j)
 (1.470668940671575331e-01+-6.202861785060985456e-02j)
 (1.016503994485545570e-01+-1.503371444720598415e-01j)
 (1.021284240361198248e-01+-1.846782494744023950e-01j)
 (7.293558271147219940e-02+-2.443351801023485592e-01j)
 (1.230178632828841379e-01+-3.614826493991857848e-01j)
 (2.220749620999178942e-01+-2.358065864084945562e-01j)
 (4.285909491900194435e-02+-1.415969942917474356e-01j)
 (-1.445031481971355558e-01+-2.373818331263399806e-01j)
 (-2.962412568729728135e-01+-4.381021456552068871e-01j)
 (-1.707394453972000403e-01+-7.891443871029300006e-01j)
 (1.883448181857910186e-01+-6.888582998251435718e-01j)
 (8.877196127400550918e-02+-3.747122053032450051e-01j)
 (-2.383881038262058993e-01+-4.433333855541761181e-01j)
 (-1.357028238714256263e-01+-6.821898477440698771e-01j)
 (-1.899013909447659632e-02+-5.496782989007883424e-01j)
 (-9.226414810504260378e-02+-4.720046666294071547e-01j)
 (-1.578813050452554378e-01+-5.116577655769053434e-01j)
 (-2.567471002684942882e-02+-4.672827275629745092e-01j)
 (-5.313897515011656997e-02+-2.071892051631436249e-01j)
 (-2.313027847817088756e-01+-1.154425075541091333e-01j)
 (-3.585355393097422461e-01+-8.845936629640803461e-02j)
 (-4.843823371894848129e-01+-1.308067222899834958e-01j)
 (-4.937395922919485813e-01+-2.984820653549813962e-01j)
 (-2.113769030430035223e-01+-2.664765605037106577e-01j)
 (-1.255362450164616839e-01+1.044353456481897195e-02j)
 (-1.889682273276001578e-01+2.067259307738731899e-01j)
 (-2.811392983278983015e-01+3.481973131870037541e-01j)
 (-5.431250248028421934e-01+3.907931193716328577e-01j)
 (-5.977792409738768020e-01+1.173915097232519911e-01j)
 (-2.575748231722948534e-01+2.151117070708068180e-02j)
 (-3.665566994834667386e-02+1.746313533611767166e-01j)
 (1.236931231471262577e-01+5.120893135486412895e-01j)
 (-1.636861672891588293e-01+8.243608452052957336e-01j)
 (-4.808079488144101910e-01+5.975653660352758800e-01j)
 (-3.726161189966344933e-01+3.158652595367679172e-01j)
 (-1.272578482983787174e-01+2.580980575896926754e-01j)
 (9.102359389355968444e-02+3.528963529317683534e-01j)
 (1.031263945914789315e-01+5.728792416217056704e-01j)
 (-1.473580353445617767e-02+5.614619247935709323e-01j)
 (1.352038885194255767e-02+4.955485981343791813e-01j)
 (1.608517237873880248e-02+4.806135912629936335e-01j)
 (-2.660853198047911580e-02+4.068281238490577545e-01j)
 (4.128897010984650812e-02+2.957927267171232555e-01j)
 (1.553117325658872061e-01+2.563719735328895410e-01j)
 (2.112413528855109079e-01+2.659526633449557087e-01j)
 (2.390776671936566122e-01+2.972281223611494827e-01j)
 (1.344316657157728911e-01+3.231968782354900926e-01j)
 (3.550817469346229799e-02+1.631045015417859623e-01j)
 (9.926330782768852390e-02+1.516144234252236531e-02j)
 (1.995173153543547961e-01+-6.147876061747450244e-02j)
 (3.166681630479966647e-01+-3.715255169688623516e-02j)
 (3.189272992231637627e-01+9.524155866771909229e-02j)
 (1.667111152203991364e-01+1.401450281450182800e-01j)
 (8.690635969284929430e-02+3.474338931043078477e-02j)
 (9.054700890036311567e-02+-6.034773270750182911e-02j)
 (1.262717155950676406e-01+-1.100963496051363955e-01j)
 (1.724561007503013221e-01+-7.576318965396157401e-02j)
 (1.307580407962123936e-01+-1.754543612997667285e-02j)
 (8.225081412355123023e-02+-1.514825244194633984e-02j)
 (4.485532705512020740e-02+-2.366427730197333615e-02j)
 (1.543804422464659099e-02+-4.483190593187249412e-02j)
 (2.003983021791048980e-02+-5.216106678928382478e-02j)
 (1.309832508141940514e-02+-3.790885404417237287e-02j)
 (-7.275313400236228106e-03+-2.200644303181051656e-02j)
 (-2.640166772188708502e-02+-2.128092041945747054e-02j)
 (-2.863782711626840921e-02+-2.588888872048599951e-02j)
 (-2.751072899227436502e-02+-2.272474475450169187e-02j)
 (-2.371795358152160860e-02+-1.507826704562459028e-02j)
 (-2.604132405450980056e-02+-4.612904041561274524e-03j)
 (-2.654623212268812996e-02+4.742196429131009111e-04j)
 (-2.357041397444078687e-02+2.063438219510285287e-03j)
 (-1.576673973995263919e-02+4.247701037654084272e-03j)
 (-1.003645756571604208e-02+6.024140537300358596e-03j)
 (-1.784624525639105547e-04+1.011380395862397988e-02j)
 (5.464556275919923815e-03+1.880877504452999754e-02j)
 (3.096730382704910526e-03+2.195923314508690938e-02j)
 (-2.716931878786230103e-03+1.488422947159895836e-02j)
 (2.839621911575081876e-04+2.457768082395447168e-03j)
 (1.000048943989200953e-02+-4.160173521118557677e-03j)
 (1.434030148683407106e-02+-6.532902335472876194e-03j)
 (1.791652558530396067e-02+-1.090205237597112638e-02j)
 (2.295813707357746355e-02+-8.984143873152956178e-03j)
 (1.683676917421119551e-02+-1.252066073222398573e-02j)
 (1.379557524998076268e-02+-1.650264880919379007e-02j)
 (1.074221715976977042e-02+-2.129546151096740197e-02j)
 (9.304723898162290188e-03+-2.346258640020865843e-02j)
 (5.617814888534050644e-03+-2.384904892986699360e-02j)
 (2.501250915799902060e-03+-2.634479579112806308e-02j)
 (-3.581517238404313534e-04+-2.539574856507190864e-02j)
 (-4.395498041175695085e-03+-1.790912860124904693e-02j)
 (-1.396452645957089317e-02+-1.402503876281842310e-02j)
 (-2.181438416079454698e-02+-8.891943623697190491e-03j)
 (-3.094973043852475986e-02+-8.117532533541223574e-03j)
 (-3.267516540999355207e-02+-4.330719260778084258e-03j)
 (-3.714020853554891172e-02+-1.036770731398665166e-03j)
 (-3.542705606682607089e-02+-3.797452038546584858e-04j)
 (-3.177292978578476895e-02+6.322155643638460547e-03j)
 (-3.456700184779168405e-02+1.477013504665164456e-02j)
 (-4.013896269777831455e-02+2.139190232292286636e-02j)
 (-4.425322613816967676e-02+2.498168880287867516e-02j)
 (-4.287667664003286944e-02+2.338461401578169341e-02j)
 (-3.758334079314430004e-02+1.811691970268559937e-02j)
 (-2.341564133103516895e-02+1.792497213855585164e-02j)
 (-1.781766229080083627e-02+1.894789460373119683e-02j)
 (-5.493490017832139589e-03+2.435591075446723666e-02j)
 (-9.582709203415112247e-05+3.169892707381987557e-02j)
 (4.609428801130255500e-03+3.278296153263973028e-02j)
 (8.464901322933879660e-03+2.991971548549253457e-02j)
 (1.222175566589008347e-02+2.804024233972363458e-02j)
 (1.538632972154327372e-02+2.287383362640863990e-02j)
 (1.773402216695436906e-02+1.509820272682537400e-02j)
 (1.773696203128720741e-02+2.055204381933100309e-03j)
 (1.815191590080984449e-02+-2.522884496145960664e-02j)
 (5.791489451391307330e-02+-6.042267280561857551e-02j)
 (1.103671227103503877e-01+-4.883514793330319403e-02j)
 (1.117813965339502780e-01+-3.182224277983702887e-02j)
 (1.039445530146792390e-01+-4.293847606842023795e-02j)
 (1.149419394659424720e-01+-9.041277562359388564e-02j)
 (1.872175418336036457e-01+-1.291160209760190691e-01j)
 (2.643380716597318325e-01+-6.599501047321741642e-02j)
 (2.656275398434163604e-01+3.832418849365416824e-02j)
 (2.093091537773741906e-01+4.647472325106043189e-02j)
 (1.834748827272204008e-01+6.751592290447076816e-02j)
 (1.614111258128961279e-01+8.768856464862676003e-02j)
 (1.518207636055221299e-01+1.190261618447815417e-01j)
 (1.304191094119314387e-01+1.024323943519180879e-01j)
 (1.562927336147572066e-01+9.771144483956678561e-02j)
 (1.214928737797989072e-01+1.034499354677809596e-01j)
 (1.016636232645995314e-01+1.014893607481176518e-01j)
 (6.114809090440299216e-02+1.266248170847561472e-01j)
 (5.515914222559580721e-02+8.295644471919198792e-02j)
 (7.065666583478760754e-02+6.553645744667618844e-02j)
 (5.570786465015691025e-02+8.239547543595378276e-02j)
 (4.170136018706870062e-02+7.358224096714878482e-02j)
 (5.468816808477225400e-02+5.672920280214328870e-02j)
 (5.378498181592700905e-02+5.332802083528014048e-02j)
 (4.766902954232012102e-02+4.331641745228493462e-02j)
 (5.490850015107692772e-02+2.785335890041253093e-02j)
 (5.937343131107148536e-02+2.804584813345524855e-02j)
 (5.233166084960952369e-02+3.825310358601471256e-02j)
 (4.439704561801703642e-02+3.750928863972270016e-02j)
 (3.713592278575122280e-02+2.910999685311656607e-02j)
 (3.519579593132616396e-02+1.989215929109769410e-02j)
 (3.135082530927157246e-02+2.726382082603771156e-02j)
 (1.735993177439327378e-02+2.019280731976529075e-02j)
 (1.792887313210341990e-02+7.767651366343842831e-03j)
 (2.113231109660202930e-02+4.990182058823421085e-03j)
 (1.980770018303545932e-02+2.149336478657996874e-03j)
 (1.388267070442427559e-02+2.118571048962731521e-03j)
 (1.166532144646817253e-02+-4.491701420337665813e-05j)
 (1.270799075859557932e-02+1.482809324092707829e-03j)
 (9.035078718068426107e-03+5.876305428053422639e-03j)
 (-5.223923223111741863e-03+7.968098951663494384e-03j)
 (-1.203846306376122992e-02+1.118074790626653463e-04j)
 (-8.602407848937686924e-03+-4.286227438776698227e-03j)
 (-6.033144704592297534e-03+-3.404516048619255549e-03j)
 (-9.737795456601543512e-03+1.303105476303863686e-03j)
 (-1.732729907058076432e-02+4.238565032914858900e-03j)
 (-2.337496868465630331e-02+-2.404428227821611957e-03j)
 (-1.573426724793238959e-02+-5.430706110574670502e-03j)
 (-6.941666215631114509e-03+6.349413938294386564e-03j)
 (-1.508694991502916062e-02+1.762266423119327602e-02j)
 (-2.123247682990343776e-02+1.336272952871583007e-02j)
 (-1.652398781567605834e-02+3.889546385994582453e-03j)
 (-3.658948089017401931e-03+2.163709556074984496e-04j)
 (1.888087850263849227e-03+7.659160251919694233e-03j)
 (-9.964439287156302925e-04+1.978147406313087928e-02j)
 (-9.246256854478414680e-03+1.401086256958517656e-02j)
 (-4.244687137133928805e-03+1.753377680040418916e-03j)
 (8.322996315667886835e-03+2.755293391196350292e-03j)
 (1.461324126942807611e-02+1.065612858610457021e-02j)
 (9.226978583161234843e-03+1.038148083614132307e-02j)
 (1.257047678946571732e-02+7.018519243743429926e-03j)
 (2.099765932590537051e-02+5.465313280282788587e-03j)
 (1.818612459657512406e-02+1.233719854453649116e-02j)
 (1.186726478496181320e-02+1.005646186971950566e-02j)
 (1.063604815602862269e-02+4.138437208289456881e-03j)
 (1.150976121522757217e-02+8.926925593889721523e-04j)
 (1.303351511838138355e-02+-1.539627930883615209e-03j)
 (1.308847964487403447e-02+-2.669287809451609261e-03j)
 (1.038544538959359012e-02+-1.928244048462808818e-03j)
 (1.128555345994726629e-02+-6.891358050205751221e-03j)
 (9.230009509068713355e-03+-7.611882080894194491e-03j)
 (1.018247070586843217e-02+-6.246270276993616359e-03j)
 (5.259706608845455232e-03+-9.758292170576346458e-03j)
 (-4.325079596609281412e-04+-8.232920526614046983e-03j)
 (-1.117017204544605092e-03+-1.325848678591844305e-02j)
 (-2.718728195517832510e-03+-1.603613788820837383e-02j)
 (-1.912271794623330787e-03+-1.255677737007103098e-02j)
 (-2.191424162081432887e-03+-1.458097867241692214e-02j)
 (-9.604963155220769613e-03+-1.921103856152999931e-02j)
 (-7.172541770987163161e-03+-1.740960253574512506e-02j)
 (-7.243850165891230902e-03+-1.679656328860977543e-02j)
 (-7.357590115215497523e-03+-1.480100151781886531e-02j)
 (-1.372823633809694063e-02+-9.614055666296897687e-03j)
 (-9.963691196762153660e-03+-1.065658357851046595e-02j)
 (-8.728384525943074304e-03+-1.758457664575388546e-02j)
 (2.743714735535631733e-06+-2.418099642314884209e-02j)
 (2.172774092284117040e-02+-1.757020980129198398e-02j)
 (2.979012267414410386e-02+6.658743781970187341e-04j)
 (1.423929323315937731e-02+5.054687507094817074e-03j)
 (1.910612638276184628e-03+1.641753363374528953e-03j)
 (3.147493818871828757e-03+-1.582428422515728874e-03j)
 (8.949838278026058663e-03+-1.362228544426058539e-03j)
 (1.634739798642954878e-02+9.123953328074582009e-03j)
 (2.230152346638795621e-02+1.267015213317558391e-02j)
 (8.003814184729236836e-03+1.535839388301006581e-02j)
 (1.998275809322636130e-03+1.226278601226853809e-02j)
 (4.135878661263222081e-03+1.165338466839121144e-02j)
 (3.281003651088271189e-03+7.278197208629942454e-03j)
 (1.548290570788451786e-03+3.661222292882839943e-03j)
 (6.758808275769014225e-03+1.851903762934021961e-03j)
 (1.067603011266294449e-02+2.930017313799767459e-03j)
 (4.887956575440621093e-03+2.947928502259240108e-03j)
 (2.547203314182795719e-03+7.862733411610305090e-03j)
 (4.319118428638135665e-03+5.955622549576980104e-03j)
 (6.023820882256059918e-03+4.074081693615990395e-03j)
 (3.922300363304498556e-03+4.939026507174023271e-03j)
 (8.722810300703478289e-04+2.815195050083872750e-03j)
 (-2.362527983580818200e-04+2.114684076752306255e-03j)
 (-3.498559083343356891e-04+2.633182615488571538e-03j)
 (-1.409341775135189152e-04+4.903394664550134044e-04j)
 (-6.639604707040125571e-04+-1.043749731356262509e-03j)
 (-3.555927550984815783e-04+-7.017457227951624105e-04j)
 (-7.357932034560083281e-04+-3.450479033123259997e-03j)
 (9.362355122704434009e-04+-2.271437144881660337e-03j)
 (-1.878284186753209932e-03+-2.381148464776705435e-03j)
 (-2.556925316341847505e-03+-2.464121661222512180e-03j)
 (-2.296639383198221911e-03+-1.919293572644008468e-03j)
 (-2.525075534330338545e-03+1.200790292109468966e-03j)
 (-5.412008616111052203e-03+2.512945676955560554e-03j)
 (-6.101109262571837930e-03+6.714435864196684417e-04j)
 (-1.952926744578241738e-03+6.247915696846443765e-04j)
 (-1.331773049929758533e-03+4.208102517354368570e-03j)
 (-1.515277922880984727e-03+2.058111003181793859e-03j)
 (1.411746295388497481e-03+-1.446486969940267455e-04j)
 (4.297532114620355483e-03+-2.440950395805349324e-03j)
 (2.272350719033030837e-03+-3.090371367387490832e-04j)
 (-1.497978153092734089e-03+-1.628842733590333798e-03j)
 (-6.593066204964265903e-03+-6.023002373540751672e-03j)
 (-2.849906523100244251e-03+-4.087411963746350949e-03j)
 (-1.529601402775763487e-03+-9.338823894854374197e-03j)
 (2.032499295961789909e-03+-1.132886570292532778e-02j)
 (4.392094828688177140e-03+-8.604829386238873820e-03j)
 (6.287701008611670979e-03+-2.927254470474407490e-03j)
 (1.899272032502580081e-03+-1.492899839776381903e-03j)
 (-4.015670794768872289e-04+-1.581400549441572051e-03j)
 (-2.519609999823086647e-03+-1.650861133657108380e-03j)
 (-1.558981436032316447e-06+-4.162353743056752993e-03j)
 (-2.303303708130215958e-03+-2.783752230797038613e-03j)
 (-5.311956208803507093e-03+6.676656172808916696e-04j)
 (-5.526624661820850673e-03+-2.825067723727653159e-05j)
 (-3.396745916562873835e-03+-6.686077868880222885e-04j)
 (-9.484928163944691265e-03+3.814277116729419782e-04j)
 (-8.087692829703138284e-03+4.054171041290177517e-03j)
 (1.648057165651678219e-03+-1.108244478036327736e-03j)
 (-4.096668448173775359e-03+-2.747838778644034509e-03j)
 (-3.398842174688883160e-03+-2.641624658612118804e-03j)
 (-2.946188466426694335e-03+1.056959350062180092e-03j)
 (-1.704786281225519236e-03+2.752816799972905570e-03j)
 (1.021883091254767402e-04+3.577066805472185751e-03j)
 (-1.481226050104089047e-03+6.010938539287628835e-03j)
 (-5.550354186127847908e-03+4.544986619847087711e-03j)
 (-7.426187885922899169e-03+1.617835103144104562e-03j)
 (-1.948958687244484178e-03+1.954608379675460382e-03j)
 (-5.262014679629312217e-04+5.951205154922475232e-03j)
 (5.275081001582305508e-04+7.904985428123902438e-03j)
 (2.623924846094161881e-03+1.029479474915022223e-02j)
 (9.335741781553465440e-04+1.013781534650925326e-02j)
 (-2.153535622133750807e-04+4.471211173614329619e-03j)
 (2.263593239934673634e-03+3.437228380676998676e-03j)
 (2.470015480805500332e-03+4.883385539574945124e-03j)
 (1.817938224793046002e-03+5.208501228270353070e-03j)
 (1.464229720455503900e-03+6.029492686887321339e-03j)
 (3.191535667533553725e-04+5.408182479115633545e-03j)
 (-4.253725397730943533e-03+1.233577221696360686e-02j)
 (-8.953291998102316449e-03+1.976001848565657817e-02j)
 (-1.237776512802348308e-02+1.269793614767431543e-02j)
 (-1.962868036200953251e-02+5.841985355468129817e-03j)
 (-3.353642157486808051e-02+1.056731735404612196e-03j)
 (-4.584539592475223024e-02+-1.956310803332618128e-02j)
 (-3.514270891116435397e-02+-4.287691657544918239e-02j)
 (-1.373122897950420154e-02+-4.851370415097509825e-02j)
 (1.305582160282338020e-02+-3.101087030106935288e-02j)
 (9.196524763293476359e-03+-2.476678065917526164e-02j)
 (1.463872328487839970e-03+-3.018761329056289869e-02j)
 (-1.449232205587350263e-03+-3.469903448483564745e-02j)
 (1.184128371768388864e-03+-2.920197273971316884e-02j)
 (1.058085000653164083e-02+-4.332246767132656023e-02j)
 (1.907229889488848071e-02+-2.490047424322031772e-02j)
 (1.549683872588356916e-02+-6.635385253430698023e-03j)
 (1.320348965114719920e-02+-1.729077381358255089e-02j)
 (1.147211597108415857e-03+-1.359014848634095690e-02j)
 (2.179568806300254125e-02+-8.016689041427015050e-03j)
 (3.480346795580013808e-02+-1.268897220412075130e-02j)
 (1.855979569151594913e-02+-8.786837151176892652e-03j)
 (1.682994378262714710e-02+-1.062600424036209100e-02j)
 (1.714324061045022565e-02+-1.449075356262261721e-02j)
 (8.622582879757758126e-03+-1.043097503461631534e-02j)
 (2.797297694946383230e-03+-8.486293456087860843e-03j)
 (8.488689878920671270e-03+-1.095221932405089985e-02j)
 (1.100706252204147750e-02+-1.223263399944938927e-02j)
 (9.750204291122671271e-03+-1.531929360696130359e-02j)
 (1.186586166072460362e-02+-1.447205956696077933e-02j)
 (1.222099525930021857e-02+-1.020431148521273694e-02j)
 (1.095456996944834706e-02+-4.308559157282791825e-03j)
 (3.388210574863209125e-03+-9.889649215763277393e-03j)
 (1.765403287721802354e-03+-9.045406121066726715e-03j)
 (8.169518918608306354e-03+-1.078618425596918409e-02j)
 (5.403863525825937549e-03+-9.983579036248899086e-03j)
 (1.008163393445659804e-03+-8.029699898699680163e-03j)
 (3.339092186480551155e-03+-1.083372235704805654e-02j)
 (1.181788876361245313e-03+-9.883885068100412702e-03j)
 (-9.370427810699315154e-04+-5.462536148807554427e-03j)
 (-5.381772300902865937e-03+-5.175628807315446091e-03j)
 (-9.063404185667325863e-03+-7.080524523832230563e-03j)
 (-1.050561265211294275e-02+-9.337445744437069053e-03j)
 (-1.195238121371161588e-02+-1.320175521461687367e-02j)
 (-1.348764172776852586e-02+-8.452128935597522791e-03j)
 (-1.170033496573784880e-02+-4.001215672322031187e-03j)
 (-9.907363409453402367e-03+-7.961023140259726807e-03j)
 (-1.188050674156986182e-02+-6.278082106798902121e-03j)
 (-1.220411921224914473e-02+-3.134697575392704060e-03j)
 (-1.215616306406050451e-02+-5.751746001642212697e-03j)
 (-1.530778646022664009e-02+-8.350690188818416654e-03j)
 (-1.385514479231713184e-02+-9.790242995410518984e-03j)
 (-1.055615318600511623e-02+-5.371158260912526836e-03j)
 (-6.697203996545656422e-03+-5.220308501276586105e-03j)
 (-5.633931109253626120e-03+-5.813166857748916852e-03j)
 (-4.926783646434375330e-03+-3.657304197866510179e-03j)
 (-7.595077279229858411e-03+-2.436223632731580619e-03j)
 (-5.705971382542356952e-03+3.762210881131407953e-04j)
 (-4.074065341816333896e-03+2.300552961681464909e-03j)
 (-5.062878288016173234e-03+3.588126896147530824e-03j)
 (-5.369502421263033960e-03+5.116710395317944186e-03j)
 (-5.567622235233121546e-03+3.167362373248962509e-03j)
 (-3.346587410075105209e-03+2.938845806294723088e-03j)
 (1.012291545158374405e-03+4.026132289251246194e-03j)
 (-9.865781724432381820e-04+4.833930065318041945e-03j)
 (-4.809696149794996309e-03+5.365256612762232119e-03j)
 (-5.196166968338043757e-03+1.114820929687249454e-02j)
 (-7.043687995579094724e-03+7.066732669927188425e-03j)
 (-7.968576492864642979e-03+6.743937046633839347e-03j)
 (-6.857636841991290345e-03+7.934186913677232153e-03j)
 (-1.109255567751044405e-02+6.059980964421772011e-03j)
 (-5.896789751763224091e-03+4.344180794871634879e-04j)
 (-5.037030499114174970e-03+-4.589337259692953855e-04j)
 (-6.140392534460892802e-03+-6.833296575687322020e-04j)
 (-3.523952382973990528e-03+-1.832874100064676342e-03j)
 (-1.397414183113141655e-03+-1.474136118047950127e-03j)
 (-1.167907233894726026e-04+-7.575573291273910966e-04j)
 (1.352113679532803191e-05+1.920168156888367190e-03j)
 (-3.547617366247914246e-03+1.981213982570243382e-03j)
 (-5.235553823803987261e-03+-1.788929421427438386e-03j)
 (-1.038745506705614913e-02+-6.747272537983537181e-04j)
 (-1.010507210812888225e-02+-9.124025818153317898e-04j)
 (-3.541907380092614022e-03+-1.575797526139199184e-02j)
 (1.728713995596465941e-03+-1.506747732094543962e-02j)
 (1.245354580019164027e-02+-9.390725504959916703e-03j)
 (1.407659258121688774e-02+-2.779484501403049323e-03j)
 (1.068941075497583000e-02+1.721830022820089933e-03j)
 (8.577142813329056287e-03+2.026295113439714930e-04j)
 (1.028555348434232082e-02+2.022420548886321844e-03j)
 (9.999633876641116428e-03+7.466454288500090977e-03j)
 (5.737569597420594421e-03+7.186120386742844181e-03j)
 (1.692123133474324062e-03+6.554162353843758643e-03j)
 (1.293855921853760433e-03+6.092099960725482800e-03j)
 (1.896736693892881083e-03+4.226249854160232626e-03j)
 (5.524988681581317635e-04+5.892462267543721773e-03j)
 (-1.368144683283348696e-03+5.196079174576485361e-03j)
 (-1.097716540687182843e-03+2.793413768722364642e-03j)
 (-3.717250398205572751e-04+2.032908017305527174e-03j)
 (-1.214272573600074520e-03+1.154987477394186796e-03j)
 (-6.958912556312879701e-04+1.062234845505868045e-04j)
 (9.500825288688239398e-04+-4.526201971726561725e-04j)
 (1.140510207466965227e-03+-1.858230880126768118e-03j)
 (1.878250260528161256e-03+-1.839019785940255048e-03j)
 (2.709252228963825865e-03+-1.415317822418278690e-04j)
 (3.395859442762637521e-03+-1.125565227572132337e-04j)
 (4.295354817435237914e-03+-2.367880150509032045e-03j)
 (8.658696192153486279e-03+-1.159284761173914706e-03j)
 (6.627452566097277384e-03+1.744116751480011447e-03j)
 (3.657781615611924858e-03+1.413393256586737085e-03j)
 (2.857344686773287054e-03+-7.287960444245591713e-04j)
 (2.293734453497464805e-03+-6.499107023332277794e-04j)
 (3.559818021424952707e-03+-9.498993399754501700e-04j)
 (3.208546903728929853e-03+-1.501776751608287349e-03j)
 (2.037237331841416227e-03+-1.888853026564635707e-03j)
 (2.657439768976335888e-03+-2.672410030253597867e-03j)
 (4.374612040558265025e-03+-3.047259476374985978e-03j)
 (2.726045338662539709e-03+-2.522813806674669389e-03j)
 (1.889210574967238859e-03+-2.897178228889311837e-03j)
 (1.074639803172353775e-03+-2.166595057981784631e-03j)
 (1.656025142214190065e-03+-1.401654090327739003e-03j)
 (1.350417573680384904e-03+-1.953329877243927416e-03j)
 (4.647272107659566193e-03+-2.650913711695441263e-03j)
 (4.719838858093805718e-03+-3.123792206304994590e-03j)
 (3.747902149851972415e-03+-4.108553162719202727e-03j)
 (2.631756623511182641e-03+-3.270205177921727685e-03j)
 (2.802317307186194366e-03+-2.870286129727051688e-03j)
 (2.657385463212833931e-03+-1.193717709616940251e-03j)
 (3.155824832683222503e-03+-8.610465678875347086e-04j)
 (2.946419473297268599e-03+-1.265766262061282597e-03j)
 (4.052374441033819788e-03+-1.122238025768416709e-03j)
 (2.155803773812923867e-03+-2.676762281608826601e-04j)
 (1.711341468413493444e-03+-8.141028985696260748e-04j)
 (1.283213426075734435e-03+-9.513571319884937079e-04j)
 (1.329703823060318472e-03+-9.992011354669656786e-04j)
 (2.825420149301885019e-03+-9.926649338377565614e-04j)
 (1.928940585918649617e-03+-1.769324749889333100e-04j)
 (1.171830858725423892e-03+-3.306656132672003477e-05j)
 (6.838609145510596678e-04+-6.263804274622386233e-04j)
 (1.152545205167790571e-03+-4.058521473570061034e-04j)
 (1.036373557340893644e-03+-3.907652671593340467e-04j)
 (7.689805707390497168e-04+-1.618824319290385083e-04j)
 (1.021803259783670217e-03+-1.738607592978982572e-04j)
 (9.336532788673953219e-04+5.334302181993859620e-04j)
 (3.446961009516134097e-04+5.807370928813545240e-04j)
 (-1.013958232999402674e-04+-9.280554190471943822e-05j)
 (-5.095238986694886583e-04+-2.006876634635002422e-04j)
 (-1.277568639661203268e-04+-1.064020201513174793e-04j)
 (-5.771671695869714852e-04+-1.526307427616551131e-04j)
 (-6.177884533943511173e-04+-1.287315023988546260e-04j)
 (-4.280703866238530627e-04+-7.728608174303477994e-04j)
 (3.924091215757407973e-05+-9.865742114306245720e-04j)
 (7.598155586630628072e-04+-1.377625760189164978e-04j)
 (1.086061480771403518e-03+5.381645758400332557e-04j)
 (1.021597086237774907e-03+8.444239312470131669e-04j)
 (1.077050519740307646e-05+1.581077979325060676e-03j)
 (2.447031238640247548e-04+6.940090673805629235e-04j)
 (4.323615589831370431e-04+2.377559652857373640e-03j)
 (3.203456575380012441e-04+2.166555119343366916e-03j)
 (1.110926343349995932e-03+6.878637741457865754e-04j)
 (4.222356552845985271e-04+9.874575025366767300e-04j)
 (-9.951392789946862140e-04+4.279572597886700368e-04j)
 (-3.474146150959768562e-03+-1.243408497283139246e-03j)
 (-2.437404793318650141e-03+-6.931189311819844394e-04j)
 (-1.935263186958958298e-03+-5.825896677386473632e-04j)
 (-1.825739194583197262e-03+-9.635627040913717417e-04j)
 (-1.752136227782046755e-03+-9.627752046366202816e-04j)
 (-2.063586036561855172e-03+-1.667288721305099910e-03j)
 (-4.236563815192467830e-03+-5.433204112732227488e-04j)
 (-2.657500237213084385e-03+-1.521355962941403758e-03j)
 (-1.771104949087574714e-03+-1.703308389189049209e-03j)
 (-1.707293230410604360e-03+-3.441807678410439657e-03j)
 (-1.321300646786691558e-04+-2.839928331077334195e-03j)
 (-7.634051973747189856e-04+-8.228898255797281042e-04j)
 (-2.286795233616388274e-03+-2.304441006304232698e-03j)
 (-3.450402904886410577e-03+-2.737679679916610233e-03j)
 (-2.063940488364900822e-03+-1.551008908069499573e-03j)
 (-4.397182449475948887e-04+-1.289568115694493750e-03j)
 (7.013406398236246954e-04+-1.617896331550085741e-03j)
 (8.553183493017732552e-04+-3.041136422868347816e-04j)
 (1.184160471701468757e-03+3.749945305489776567e-04j)
 (1.739590850953061873e-05+-2.933921057997832265e-04j)
 (5.632657426646296315e-04+4.354518240287100965e-05j)
 (1.837962550296033518e-04+4.191696857410389830e-04j)
 (8.072920935234851074e-04+1.853226507142224130e-04j)
 (1.305465722036277783e-03+5.578578323809857886e-04j)
 (1.749090083208137882e-03+9.321858273703441996e-04j)
 (1.126913917295979412e-03+1.714153428652692279e-03j)
 (1.144691003535774302e-03+2.817386059294362671e-03j)
 (-1.776182235241706604e-03+3.504569216703662740e-03j)
 (-1.791312318839945314e-03+1.291516539892328258e-03j)
 (5.365474254284657418e-04+-4.893968305110936142e-04j)
 (-3.498270823311694665e-05+-2.143438475732790081e-03j)
 (-7.288552743269724205e-04+-8.130578899244732564e-04j)
 (-7.239940506559794592e-04+1.341978288959740106e-04j)
 (-1.300240385834615592e-03+-1.981008191706394497e-03j)
 (-7.661821108691165309e-04+-1.808777338979013173e-03j)
 (-4.957039052582429403e-04+-2.806117457013352083e-04j)
 (-9.036594206237522076e-04+4.953128575410491879e-05j)
 (-4.717045324324647981e-04+-2.143115854170909312e-04j)
 (-8.127104570683174557e-04+-1.117603152035520674e-03j)
 (2.182311944264596782e-04+-2.106752268445226698e-04j)
 (5.769847867273506957e-04+-1.726097301257409811e-04j)
 (9.706121626097758337e-04+1.798067878904257189e-04j)
 (1.341048488489451158e-04+1.036837284558924527e-04j)
 (-4.759419520789333943e-05+4.410962219576714059e-04j)
 (3.870440570081207341e-04+2.172310169346430267e-04j)
 (-6.218167204456242169e-05+6.393297039493793152e-05j)
 (-4.589916189189164534e-04+1.301650980790741978e-04j)
 (-3.961615067557927822e-04+1.485457206087020853e-04j)
 (7.848956758626120776e-05+9.548946534681561284e-05j)
 (1.850613114905538185e-04+1.966248328261925105e-04j)
 (-9.836459409681558839e-05+-8.529010910586002606e-05j)
 (-2.422772419459521219e-05+-4.083646183032628733e-05j)
 (3.130073901964429666e-05+-1.254513635757286078e-04j)
 (-8.823046156540141930e-05+-1.485994500780312796e-05j)
 (-1.369154689471195120e-04+9.016367993316381905e-05j)
 (1.182722072436826594e-04+1.183377851386632605e-04j)
 (1.420566380233056797e-04+3.423413313521463715e-04j)
 (2.570577377089774442e-04+2.460449491496377963e-04j)
 (7.901391241241172126e-05+1.964981991379486184e-04j)
 (2.483640687110865125e-04+3.783278020052646879e-04j)
 (-2.378602787297519284e-04+4.728771748755483065e-04j)
 (-2.633791930830833763e-04+6.759756482527453389e-05j)
 (-2.347439983930980792e-04+-3.399670770409803994e-05j)
 (1.770067980103708701e-04+-2.526411440513025051e-05j)
 (-2.408924316247307317e-04+-1.260771509202059852e-04j)
 (-9.974211022354118310e-04+0.000000000000000000e+00j)
